Final Project: State/Region Incarceration Levels by Sex
…
Appendix

library(RCurl)
library(readr)

pros_url <- getURL("https://raw.githubusercontent.com/avaelisa/Final-Project-SOC10-avaluci/refs/heads/main/StrictnessProstitutionData.csv")

# download prostitution data that we made (from github)
prosdata <- read_csv(pros_url)

print(prosdata) #prostitution data that we made 

## # A tibble: 49 × 3
##    `State Name` Charge for Prostitution and/or Potentia…¹ Offenses in Past 5 y…²
##    <chr>        <chr>                                     <chr>                 
##  1 Alabama      "Class A misdemeanor"                     348                   
##  2 Alaska       "Class B misdemeanor"                     43                    
##  3 Arizona      "Class 1 misdemeanor"                     2,231                 
##  4 Arkansas     "Class B misdemeanor on first offense\r\… 406                   
##  5 California   "Misdemeanor \r\n\r\nProbation is not an… 7,276                 
##  6 Colorado     "Petty offense"                           1,223                 
##  7 Connecticut  "Class A misdemeanor"                     308                   
##  8 Delaware     "Class B misdemeanor\r\n\r\nClass A misd… 109                   
##  9 Florida      "Second degree misdemeanor on first offe… 2,717                 
## 10 Georgia      "Misdemeanor"                             1,395                 
## # ℹ 39 more rows
## # ℹ abbreviated names:
## #   ¹​`Charge for Prostitution and/or Potential Consequences`,
## #   ²​`Offenses in Past 5 years`

url <- getURL("https://raw.githubusercontent.com/avaelisa/soc10finalproject-alex-christine-ava-luci/refs/heads/main/soc10-dataset")

# download incarceration data from the BJS (from github)
data <- read_csv(url)

print(data) #uncleaned data downloaded from the BJS

## # A tibble: 53 × 4
##    Location        Total    Male Female
##    <chr>           <dbl>   <dbl>  <dbl>
##  1 U.S. total    1210308 1124435  85873
##  2 Federal        143297  133551   9746
##  3 All States    1067011  990884  76127
##  4 Alabama         20181   18765   1416
##  5 Alaska/b         1485    1415     70
##  6 Arizona         33473   30513   2960
##  7 Arkansas        18349   16815   1534
##  8 California      95827   92017   3810
##  9 Colorado        17084   15711   1373
## 10 Connecticut/b    6643    6259    384
## # ℹ 43 more rows
…
